Argentine Peso	1.334696	0.749235
Australian Dollar	0.018475	54.126257
Bahraini Dinar	0.005115	195.489189
Botswana Pula	0.149050	6.709178
Brazilian Real	0.071425	14.000703
British Pound	0.009830	101.728512
Bruneian Dollar	0.018247	54.803182
Bulgarian Lev	0.022524	44.397820
Canadian Dollar	0.017227	58.049168
Chilean Peso	10.733692	0.093165
Chinese Yuan Renminbi	0.087675	11.405786
Colombian Peso	52.168650	0.019169
Croatian Kuna	0.086230	11.596903
Czech Koruna	0.291950	3.425238
Danish Krone	0.085633	11.677714
Emirati Dirham	0.049963	20.014686
Euro	0.011516	86.834589
Hong Kong Dollar	0.105825	9.449606
Hungarian Forint	4.033391	0.247930
Icelandic Krona	1.741228	0.574307
Indonesian Rupiah	193.416052	0.005170
Iranian Rial	571.741950	0.001749
Israeli Shekel	0.043559	22.957233
Japanese Yen	1.495559	0.668646
Kazakhstani Tenge	5.800237	0.172407
Kuwaiti Dinar	0.004090	244.518850
Libyan Dinar	0.061409	16.284274
Malaysian Ringgit	0.056282	17.767827
Mauritian Rupee	0.575738	1.736901
Mexican Peso	0.270266	3.700064
Nepalese Rupee	1.607500	0.622084
New Zealand Dollar	0.019099	52.360065
Norwegian Krone	0.117796	8.489225
Omani Rial	0.005231	191.167582
Pakistani Rupee	2.287977	0.437067
Philippine Peso	0.679568	1.471522
Polish Zloty	0.052313	19.115551
Qatari Riyal	0.049521	20.193389
Romanian New Leu	0.056924	17.567140
Russian Ruble	0.995361	1.004661
Saudi Arabian Riyal	0.051018	19.601049
Singapore Dollar	0.018247	54.803182
South African Rand	0.192972	5.182109
South Korean Won	15.915164	0.062833
Sri Lankan Rupee	2.717422	0.367996
Swedish Krona	0.117332	8.522857
Swiss Franc	0.012489	80.069468
Taiwan New Dollar	0.376289	2.657534
Thai Baht	0.445001	2.247184
Trinidadian Dollar	0.092365	10.826573
Turkish Lira	0.115107	8.687544
US Dollar	0.013605	73.503935
Venezuelan Bolivar	5453018755.504424	0.000000